{
  "CHANGELOG.md": "aa920f893747ad98162cf01d041cc196",
  "CONTRIBUTING.md": "9d4650b0c17401453034e7d4068f312b",
  "CONTRIBUTORS": "a9a992ec8eba79bc4d55a8016a428878",
  "Gemfile": "e0ccc2d1aa1c92e49ffd9bf223e19e9e",
  "HISTORY.md": "cc3c2cc4aaa34f962241ae63e6adc296",
  "LICENSE": "6389e1067da7bb541013ee175cf8c415",
  "README.md": "a427a3a4c72b11cd7dbe0e3f4788ce40",
  "Rakefile": "3c6f218e7e63e1a6e24251f365423e49",
  "manifests/conf.pp": "a074796a71f688fab1247f681599ab41",
  "manifests/config.pp": "e8f2b46321fe39ded9bbed2f8b9707db",
  "manifests/cron.pp": "3d84d0a2a74316fc6e9352b338a4c35d",
  "manifests/defaults.pp": "412483da026c48f1dbb372589553f57b",
  "manifests/hourly.pp": "1d1ffdf716f43c336a8ff30338b5ea8b",
  "manifests/init.pp": "f8bfe925a13c6a968ca3bc64dbb72166",
  "manifests/install.pp": "c3fe9a5516751457bb9491384fa95473",
  "manifests/params.pp": "737012c7e031723270a6bd73f31645cc",
  "manifests/rule.pp": "e12acbd20ea5b3e14c873674929d3fd4",
  "manifests/rules.pp": "737c2feccf2c7599f91fedb00e56aa04",
  "metadata.json": "f5cc9d97b44f8cfaea759fbefedde9f5",
  "spec/acceptance/class_spec.rb": "e67cfed4e713d43fb215433f8b752449",
  "spec/acceptance/nodesets/archlinux-2-x64.yml": "daafcfcb4c8c8766856f52cec6ae5e86",
  "spec/acceptance/nodesets/centos-511-x64.yml": "ca8258bc835dd985a1754689d124cd66",
  "spec/acceptance/nodesets/centos-6-x64.yml": "58065782a8d40780d9728257a23504cd",
  "spec/acceptance/nodesets/centos-64-x64.yml": "7ad72bad9087a52f30c6f7d5600b68dd",
  "spec/acceptance/nodesets/centos-66-x64-pe.yml": "e68e03dc562bf58f7c5bba54a1a34619",
  "spec/acceptance/nodesets/centos-66-x64.yml": "b141eceeb080e54a3b27834dbbaa54dd",
  "spec/acceptance/nodesets/centos-7-x64.yml": "68d3556f670b8ac0a169a8270ff8c37a",
  "spec/acceptance/nodesets/centos-72-x64.yml": "7a672612e9dd1271f2bd87d6f738dd97",
  "spec/acceptance/nodesets/debian-609-x64.yml": "2c970ef6fb9856b66c1c11d0cb5a475b",
  "spec/acceptance/nodesets/debian-76-x64.yml": "32e08fc3dc567f573988a59bf53de3d2",
  "spec/acceptance/nodesets/debian-78-x64.yml": "56af2760a64c13a0bccd59404435939c",
  "spec/acceptance/nodesets/debian-82-x64.yml": "26f2f696e6073549fe0a844f9a46f85b",
  "spec/acceptance/nodesets/default.yml": "0bcbd174e285c13e33fb48063ac6ca0f",
  "spec/acceptance/nodesets/ec2/amazonlinux-2016091.yml": "b3dc2d81918fcc6d56855c88ba5b7ce8",
  "spec/acceptance/nodesets/ec2/image_templates.yaml": "516f9c4c3407993a100090ce9e1a643c",
  "spec/acceptance/nodesets/ec2/rhel-73-x64.yml": "e74670a1cb8eea32afc879a5d786f9bd",
  "spec/acceptance/nodesets/ec2/sles-12sp2-x64.yml": "2506efcc9fb420132edc37bf88d6e21d",
  "spec/acceptance/nodesets/ec2/ubuntu-1604-x64.yml": "87efd97ff1b073c3448f429a8ffc5a7c",
  "spec/acceptance/nodesets/ec2/windows-2016-base-x64.yml": "e9db4dd16c60c52b433694130c2583a0",
  "spec/acceptance/nodesets/fedora-20-x64.yml": "92a9666895bab2ff3248b27a3458dfc0",
  "spec/acceptance/nodesets/fedora-24-x64.yml": "431cd85b87a65a55af193a360aa52f26",
  "spec/acceptance/nodesets/fedora-25-x64.yml": "807fbf45f95fc7bc2af8c689d34e4160",
  "spec/acceptance/nodesets/fedora-26-x64.yml": "e7ee1e18590548ff098192c2127c6697",
  "spec/acceptance/nodesets/fedora-27-x64.yml": "326a10c4eb327ccd85775dfa0f76e5c1",
  "spec/acceptance/nodesets/ubuntu-server-1204-x64.yml": "0dd7639bf95bfb18169ebba9a2bac163",
  "spec/acceptance/nodesets/ubuntu-server-12042-x64.yml": "1091bb0897dc8ee94a391ab1d8e45132",
  "spec/acceptance/nodesets/ubuntu-server-1404-x64.yml": "7455367b784060b921360b29a56cd74c",
  "spec/acceptance/nodesets/ubuntu-server-1604-x64.yml": "37673118cc3bf052755d65fb5dd90226",
  "spec/classes/coverage_spec.rb": "166c74e93a4e70e9de79ae69f3c10e1d",
  "spec/classes/defaults_spec.rb": "90b339cb3660f65113c351438588dd7d",
  "spec/classes/hourly_spec.rb": "c6e04ab252ccf7855ed6441969926b21",
  "spec/classes/init_spec.rb": "43e6818e15c55c63aaa706649dbebbe2",
  "spec/default_facts.yml": "3da74b0aff340a4fbcca9cc4eba104c1",
  "spec/defines/conf_spec.rb": "712cda83dabdb7712a96c83b540eeccc",
  "spec/defines/cron_spec.rb": "453b0b1b32ad3825a5be8ce0f2f57370",
  "spec/defines/rule_spec.rb": "0023cd14d885418ed5b2d5b95eacb10c",
  "spec/shared_examples.rb": "4b62088c4fb8744caffffa399fd570a9",
  "spec/spec_helper.rb": "72093296acb026b92861c5ba6d724836",
  "spec/spec_helper_acceptance.rb": "6552df65215872f4cce5679a9a319414",
  "templates/etc/cron/logrotate.erb": "88fd927f73b3f1a563b61e58d6b0c3ec",
  "templates/etc/logrotate.conf.erb": "2ca4d440f32585ab32c72b760371cc57",
  "templates/etc/logrotate.d/rule.erb": "87791f3398029d474b363fce8efda66f",
  "types/commands.pp": "408421529a846efb157769a5dd76b4e0",
  "types/every.pp": "40fe241fb71b185c999f90f9942e1359",
  "types/path.pp": "55ec07405b210ee89115a79f3016f27f",
  "types/size.pp": "239f8699a4081296f72e7574372d6e45"
}